{
  "state": 1,
  "data": {
    "pageSize": 10,
    "pageNum": 0,
    "total": 11,
    "totalPage": 2,
    "content": [
      {
        "resName": null,
        "tenantName": "钱明泽测试数据中心2",
        "cdKey": "666666",
        "activeTime": null,
        "allowTime": "2017-08-03 18:59:27",
        "company": null,
        "status": 2,
        "content": "激活文件生成中",
        "loginUrl": "http://172.20.18.53/apptenant/pages/CloudDataCenter/CloudStateList.html",
        "endDate": null,
        "typeId": null
      },
      {
        "resName": null,
        "tenantName": "测试U8C云服务开通",
        "cdKey": "yswbf4b5483ffd0efda9dd67e9d6f20101c",
        "activeTime": null,
        "allowTime": "2017-08-03 18:39:11",
        "company": null,
        "status": 1,
        "content": "激活文件生成中",
        "loginUrl": null,
        "endDate": null,
        "typeId": null
      },
      {
        "resName": null,
        "tenantName": "u8cloud0803",
        "cdKey": "66666666",
        "activeTime": null,
        "allowTime": "2017-08-03 14:38:31",
        "company": null,
        "status": 2,
        "content": "激活文件生成中",
        "loginUrl": null,
        "endDate": null,
        "typeId": null
      },
      {
        "resName": null,
        "tenantName": "失效租户失效租户失效租户失效租户失效租户",
        "cdKey": "3",
        "activeTime": null,
        "allowTime": "2017-08-03 09:26:06",
        "company": null,
        "status": 1,
        "content": "激活文件生成中",
        "loginUrl": null,
        "endDate": null,
        "typeId": null
      },
      {
        "resName": null,
        "tenantName": "eiaptest3",
        "cdKey": "yuiiiiii",
        "activeTime": null,
        "allowTime": "2017-08-02 15:41:48",
        "company": null,
        "status": 1,
        "content": "激活文件生成中",
        "loginUrl": null,
        "endDate": null,
        "typeId": null
      },
      {
        "resName": null,
        "tenantName": "使用租户huohu9",
        "cdKey": "sdad",
        "activeTime": null,
        "allowTime": "2017-07-31 10:09:40",
        "company": null,
        "status": 1,
        "content": "激活文件生成中",
        "loginUrl": null,
        "endDate": null,
        "typeId": null
      },
      {
        "resName": null,
        "tenantName": "eiaptest6",
        "cdKey": "aa",
        "activeTime": null,
        "allowTime": "2017-07-29 14:49:00",
        "company": null,
        "status": 1,
        "content": "激活文件生成中",
        "loginUrl": null,
        "endDate": null,
        "typeId": null
      },
      {
        "resName": null,
        "tenantName": "qtest",
        "cdKey": "66666",
        "activeTime": null,
        "allowTime": "2017-07-29 10:14:09",
        "company": null,
        "status": 1,
        "content": "激活文件生成中",
        "loginUrl": null,
        "endDate": null,
        "typeId": null
      },
      {
        "resName": null,
        "tenantName": "wy0728%#U8Cloud",
        "cdKey": "sda",
        "activeTime": null,
        "allowTime": "2017-07-28 10:47:29",
        "company": null,
        "status": 1,
        "content": "激活文件生成中",
        "loginUrl": null,
        "endDate": null,
        "typeId": null
      },
      {
        "resName": null,
        "tenantName": "应用平台1",
        "cdKey": "admin",
        "activeTime": null,
        "allowTime": "2017-07-27 14:57:02",
        "company": null,
        "status": 1,
        "content": "激活文件生成中",
        "loginUrl": null,
        "endDate": null,
        "typeId": null
      }
    ]
  }
}